{
  "constituencies": 650,
  "parties": 131,
  "candidates": 3971,
  "total_votes": {
    "total": 30697255,
    "parties": [
      ["conservative", 11299609],
      ["labour", 9347003],
      ["ukip", 3881099],
      ["liberal-democrat", 2415916],
      ["snp", 1454436],
      ["green", 1157630],
      ["dup", 184260],
      ["plaid-cymru", 181704],
      ["sinn-fein", 176232],
      ["uup", 114935],
      ["independent", 103426],
      ["sdlp", 99809],
      ["none", 34617],
      ["other", 246579]
    ],
    "electorate": 46354197,
    "turnout": 66.22324835009007
  },
  "fpp_results": {
    "seat_totals": [
      ["conservative", 330],
      ["labour", 232],
      ["snp", 56],
      ["dup", 8],
      ["liberal-democrat", 8],
      ["sinn-fein", 4],
      ["plaid-cymru", 3],
      ["sdlp", 3],
      ["uup", 2],
      ["green", 1],
      ["independent", 1],
      ["none", 1],
      ["ukip", 1]
    ],
    "wasted_votes": 14941159
  },
  "mpp_results": {
    "seat_totals": [
      ["conservative", 240],
      ["labour", 199],
      ["ukip", 82],
      ["liberal-democrat", 51],
      ["snp", 31],
      ["green", 25],
      ["dup", 8],
      ["sinn-fein", 4],
      ["plaid-cymru", 3],
      ["sdlp", 3],
      ["uup", 2],
      ["independent", 1],
      ["none", 1]
    ],
    "wasted_votes": 662110
  }
}
