{
  "constituencies": 646,
  "parties": 116,
  "candidates": 3554,
  "total_votes": {
    "total": 27148510,
    "parties": [
      ["labour", 9552436],
      ["conservative", 8784915],
      ["liberal-democrat", 5985454],
      ["snp", 412267],
      ["dup", 241856],
      ["plaid-cymru", 174838],
      ["sinn-fein", 174530],
      ["uup", 127414],
      ["sdlp", 125626],
      ["independent", 120196],
      ["respect", 68094],
      ["khhc", 18739],
      ["none", 15153],
      ["other", 1346992]
    ],
    "electorate": 44245939,
    "turnout": 61.35819605952989
  },
  "fpp_results": {
    "seat_totals": [
      ["labour", 355],
      ["conservative", 198],
      ["liberal-democrat", 62],
      ["dup", 9],
      ["snp", 6],
      ["sinn-fein", 5],
      ["plaid-cymru", 3],
      ["sdlp", 3],
      ["independent", 1],
      ["khhc", 1],
      ["none", 1],
      ["respect", 1],
      ["uup", 1]
    ],
    "wasted_votes": 11242906
  },
  "mpp_results": {
    "seat_totals": [
      ["labour", 242],
      ["conservative", 222],
      ["liberal-democrat", 151],
      ["dup", 9],
      ["snp", 6],
      ["sinn-fein", 5],
      ["plaid-cymru", 3],
      ["sdlp", 3],
      ["independent", 1],
      ["khhc", 1],
      ["none", 1],
      ["respect", 1],
      ["uup", 1]
    ],
    "wasted_votes": 2093305
  }
}
